{
  "title" : "ACLED 2016",
  "subtitle" : "Mapping conflict and protest data for African states",
  "map": {
        "root_selector": "chart-map",
        "zoom": {
            "max": 14,
            "min": 2
        },
        "disableClusteringAtZoom": 16
    }
}
